…
``` r
library(uisapi)
```

To fetch indicators for specific entities, you can call:

``` r
uis_get(
  entities = c("BRA", "USA"),
  indicators = c("CR.1", "CR.2"),
  start_year = 2010,
  end_year = 2020
)
#> # A tibble: 36 × 4
#>    entity_id indicator_id  year value
#>    <chr>     <chr>        <int> <dbl>
#>  1 BRA       CR.1          2011  89.9
#>  2 BRA       CR.1          2012  91.6
#>  3 BRA       CR.1          2013  91.5
#>  4 BRA       CR.1          2014  92.9
#>  5 BRA       CR.1          2015  93.2
#>  6 BRA       CR.1          2016  93.8
#>  7 BRA       CR.1          2017  94.6
#>  8 BRA       CR.1          2018  95.1
#>  9 BRA       CR.1          2019  95.7
#> 10 BRA       CR.1          2020  96.3
#> # ℹ 26 more rows
```

You can get information about the available entities via:

``` r
uis_get_entities()
#> # A tibble: 462 × 4
#>    entity_id entity_name          entity_type region_group
#>    <chr>     <chr>                <chr>       <chr>       
#>  1 ABW       Aruba                NATIONAL    <NA>        
#>  2 AFG       Afghanistan          NATIONAL    <NA>        
#>  3 AGO       Angola               NATIONAL    <NA>        
#>  4 AIA       Anguilla             NATIONAL    <NA>        
#>  5 ALA       Åland Islands        NATIONAL    <NA>        
#>  6 ALB       Albania              NATIONAL    <NA>        
#>  7 AND       Andorra              NATIONAL    <NA>        
#>  8 ANT       Netherlands Antilles NATIONAL    <NA>        
#>  9 ARE       United Arab Emirates NATIONAL    <NA>        
#> 10 ARG       Argentina            NATIONAL    <NA>        
#> # ℹ 452 more rows
```

The list of available indicators can be retrieved via:

``` r
uis_get_indicators()
#> # A tibble: 4,636 × 7
#>    indicator_id indicator_name     theme last_data_update last_data_update_des…¹
#>    <chr>        <chr>              <chr> <date>           <chr>                 
#>  1 10           Official entrance… EDUC… 2025-09-17       September 2025 Data R…
#>  2 10403        Start month of th… EDUC… 2025-09-17       September 2025 Data R…
#>  3 10404        End month of the … EDUC… 2025-09-17       September 2025 Data R…
#>  4 10405        Start of the acad… EDUC… 2025-09-17       September 2025 Data R…
#>  5 10406        End of the academ… EDUC… 2025-09-17       September 2025 Data R…
#>  6 13           Theoretical durat… EDUC… 2025-09-17       September 2025 Data R…
#>  7 200101       Total population … DEMO… 2025-09-09       September 2025 Data R…
#>  8 200144       Population aged 1… DEMO… 2025-09-09       September 2025 Data R…
#>  9 200151       Population aged 6… DEMO… 2025-09-09       September 2025 Data R…
#> 10 200343       Population aged 1… DEMO… 2025-09-09       September 2025 Data R…
#> # ℹ 4,626 more rows
#> # ℹ abbreviated name: ¹​last_data_update_description
#> # ℹ 2 more variables: data_availability <list>, entity_types <list>
```
…
