Get indicator definitions from UIS API — uis_get_indicators • uisapi
…
entity_types
List column. Contains information about entity types
associated with the indicator.

    See also

    uis_get_versions for retrieving available API versions.

    Examples

# \donttest{
uis_get_indicators()
#> # A tibble: 4,247 × 7
#>    indicator_id indicator_name     theme last_data_update last_data_update_des…¹
#>    <chr>        <chr>              <chr> <chr>            <chr>                 
#>  1 10           Official entrance… EDUC… 2025-02-23       February 2025 Data Re…
#>  2 10403        Start month of th… EDUC… 2025-02-23       February 2025 Data Re…
#>  3 10404        End month of the … EDUC… 2025-02-23       February 2025 Data Re…
#>  4 10405        Start of the acad… EDUC… 2025-02-23       February 2025 Data Re…
#>  5 10406        End of the academ… EDUC… 2025-02-23       February 2025 Data Re…
#>  6 13           Theoretical durat… EDUC… 2025-02-23       February 2025 Data Re…
#>  7 200101       Total population … DEMO… 2025-02-23       February 2025 Data Re…
#>  8 200144       Population aged 1… DEMO… 2025-02-23       February 2025 Data Re…
#>  9 200151       Population aged 6… DEMO… 2025-02-23       February 2025 Data Re…
#> 10 200343       Population aged 1… DEMO… 2025-02-23       February 2025 Data Re…
#> # ℹ 4,237 more rows
#> # ℹ abbreviated name: ¹​last_data_update_description
#> # ℹ 2 more variables: data_availability <list>, entity_types <list>
…
